{
  "meta": {
    "endpoint": "_ingest/pipeline/agent_pipeline",
    "app_type": "Content-Type: application/json",
    "method": "-XPUT"
  },
  "payload": {
    "description": "Add user agent information",
    "processors": [{
      "user_agent": {
        "field": "agent"
      }
    }]
  }
}
