{
  "meta": {
    "endpoint": "_ingest/pipeline/user-data",
    "app_type": "Content-Type: application/json",
    "method": "-XPUT"
  },
  "payload": {
    "description": "Creating pipeline to update user data",
    "version": 123,
    "processors": [{
      "set": {
        "field": "_id",
        "value": "{{user_id}}"
      }
    }]
  }
}
